TPU on RV quarterly china
…
## -- Column specification --------------------------------------------------------
## Delimiter: ","
## chr (2): date, (%)
## dbl (2): gdp index, log gdp index

## 
## i Use `spec()` to retrieve the full column specification for this data.
## i Specify the column types or set `show_col_types = FALSE` to quiet this message.

## Warning in mask$eval_all_mutate(quo): NA

GDP

## # A tibble: 44 x 4
##     year quarter log_gdp_index gdp_qtr_to_qtr
##    <dbl>   <int>         <dbl>          <dbl>
##  1  2010       4        0                NA  
##  2  2011       1        0.0107            2.5
##  3  2011       2        0.0202            2.2
##  4  2011       3        0.0283            1.9
##  5  2011       4        0.0348            1.5
##  6  2012       1        0.0421            1.7
##  7  2012       2        0.0520            2.3
##  8  2012       3        0.0602            1.9
##  9  2012       4        0.0684            1.9
## 10  2013       1        0.0765            1.9
## # ... with 34 more rows
…
